[
    {
        "link": {
            "/usr/local/bin/spotify": "spotify.sh",
            "~/.vimrc": "vimrc",
            "~/.vim": "vim/",
            "~/.aliases": "aliases",
            "~/.screenrc": "screenrc",
            "~/.gitconfig": "gitconfig",
            "~/.bashrc": "bashrc",
            "~/.zshrc": "zshrc"
        }
    },
    {
        "shell": [
            ["git submodule update --init --recursive", "Installing submodules"]
        ]
    }
]
